# Blender v2.71 (sub 0) OBJ File: ''
# www.blender.org
mtllib plane2.mtl
o Plane.001
v 1.000000 0.000000 1.000000
v 3.000000 0.000000 1.000000
v 1.000000 0.000000 -1.000000
v 3.000000 0.000000 -1.000000
vn 0.000000 1.000000 0.000000
usemtl None
s off
f 1//1 2//1 4//1 3//1
o Plane
v -1.000000 0.000000 1.000000
v 1.000000 0.000000 1.000000
v -1.000000 0.000000 -1.000000
v 1.000000 0.000000 -1.000000
v -4.000000 -2.000000 0.000000
v 1.000000 0.000000 0.000000
vn -0.371400 0.928500 0.000000
vn 0.000000 0.447200 0.894400
vn 0.000000 0.447200 -0.894400
usemtl None
s off
f 9//2 10//2 8//2
f 6//2 10//2 9//2
f 7//3 9//3 8//3
f 5//4 6//4 9//4
